Práctica II
…
Ejercicio 2:

Estandariza los datos y guardalos en provincias_std

# Completa el código
provincias_std <- provincias %>%  mutate(across(where(is.numeric), ~scale(.)),seriate = "mean", row_dend_left = TRUE)

provincias_std

# A tibble: 52 × 21
   Prov      Poblacion[,1] Mortalidad[,1] Natalidad[,1] IPC[,1]
   <chr>             <dbl>          <dbl>         <dbl>   <dbl>
 1 Albacete         -0.435         0.0146        0.0847 -0.648 
 2 Alicante          0.839        -0.650        -0.149  -0.0502
 3 Almería          -0.171        -1.16          1.20   -1.09  
 4 Álava            -0.500        -0.782         0.664   0.479 
 5 Asturias          0.141         1.31         -1.21   -0.342 
 6 Badajoz          -0.181         0.0759        0.0566 -1.60  
 7 Balears           0.177        -1.08          0.314   2.08  
 8 Barcelona         4.01         -0.565         0.375   2.94  
 9 Bizkaia           0.219         0.203        -0.135   1.37  
10 Burgos           -0.461         0.529        -0.514   1.86  
# … with 42 more rows, and 16 more variables: NumEmpresas <dbl[,1]>,
#   Industria <dbl[,1]>, Construccion <dbl[,1]>, CTH <dbl[,1]>,
#   Infor <dbl[,1]>, AFS <dbl[,1]>, APT <dbl[,1]>,
#   TasaActividad <dbl[,1]>, TasaParo <dbl[,1]>, Ocupados <dbl[,1]>,
#   PIB <dbl[,1]>, CANE <dbl[,1]>, TVF <dbl[,1]>, VS <dbl[,1]>,
#   seriate <chr>, row_dend_left <lgl>
…
